…
    ## Warning: Removed 10037 rows containing missing values (geom_point).

<img src="case_study_files/figure-gfm/unnamed-chunk-4-1.png" width="90%" />

Price and neighbourhood?

``` r
nyc_airbnb %>% 
  filter(borough == "Manhattan") %>% 
  group_by(neighbourhood) %>% 
  summarize(mean_price = mean(price,na.rm = TRUE)) %>% 
  arrange(mean_price)
```

    ## # A tibble: 32 x 2
    ##    neighbourhood       mean_price
    ##    <chr>                    <dbl>
    ##  1 Marble Hill               83.6
    ##  2 Inwood                    86.5
    ##  3 Washington Heights        90.1
    ##  4 Morningside Heights      107. 
    ##  5 Harlem                   117. 
    ##  6 Roosevelt Island         122. 
    ##  7 Two Bridges              123. 
    ##  8 East Harlem              128. 
    ##  9 Chinatown                158. 
    ## 10 Upper East Side          172. 
    ## # ... with 22 more rows
…
